{ "frames": {
   "Wall_BottomRight.aseprite": {
    "frame": { "x": 0, "y": 0, "w": 64, "h": 64 },
    "rotated": false,
    "trimmed": false,
    "spriteSourceSize": { "x": 0, "y": 0, "w": 64, "h": 64 },
    "sourceSize": { "w": 64, "h": 64 },
    "duration": 100
   }
 },
 "meta": {
  "app": "http://www.aseprite.org/",
  "version": "1.2.10-beta2-x64",
  "image": "C:\\Users\\Dylan\\Workspace\\ld43\\art\\Wall_BottomRight.png",
  "format": "RGBA8888",
  "size": { "w": 64, "h": 64 },
  "scale": "1",
  "frameTags": [
  ],
  "layers": [
   { "name": "Wall H", "opacity": 255, "blendMode": "normal" },
   { "name": "Shadow", "opacity": 255, "blendMode": "normal" }
  ],
  "slices": [
  ]
 }
}
