{ "height":10,
 "infinite":false,
 "layers":[
        {
         "data":[1, 1, 1, 1, 1, 1, 1, 1, 1, 1, 1, 1, 1, 1, 1, 1, 1, 1, 1, 1, 1, 0, 0, 0, 0, 0, 0, 0, 0, 0, 0, 1, 1, 1, 1, 1, 0, 0, 0, 1, 1, 0, 10, 0, 0, 0, 18, 0, 0, 0, 0, 49, 50, 49, 50, 17, 0, 0, 0, 1, 1, 0, 0, 0, 0, 0, 0, 0, 0, 0, 0, 57, 58, 57, 58, 0, 0, 0, 0, 1, 1, 0, 0, 0, 0, 0, 0, 0, 0, 0, 65, 66, 65, 66, 65, 66, 69, 70, 0, 1, 1, 0, 0, 0, 0, 0, 0, 0, 0, 0, 73, 74, 73, 74, 73, 74, 77, 78, 0, 1, 1, 0, 0, 0, 0, 0, 26, 0, 0, 0, 0, 49, 50, 49, 50, 25, 0, 0, 0, 1, 1, 0, 10, 0, 0, 0, 0, 0, 0, 0, 0, 57, 58, 57, 58, 0, 0, 0, 0, 1, 1, 0, 0, 0, 0, 0, 0, 0, 0, 0, 0, 1, 1, 1, 1, 1, 0, 0, 0, 1, 1, 1, 1, 1, 1, 1, 1, 1, 1, 1, 1, 1, 1, 1, 1, 1, 1, 1, 1, 1],
         "height":10,
         "id":1,
         "name":"Tile Layer 1",
         "opacity":1,
         "type":"tilelayer",
         "visible":true,
         "width":20,
         "x":0,
         "y":0
        }],
 "nextlayerid":2,
 "nextobjectid":1,
 "orientation":"orthogonal",
 "renderorder":"right-down",
 "tiledversion":"1.2.1",
 "tileheight":32,
 "tilesets":[
        {
         "firstgid":1,
         "source":"..\/32tiles.tsx"
        }],
 "tilewidth":32,
 "type":"map",
 "version":1.2,
 "width":20
}