{ "height":15,
 "infinite":false,
 "layers":[
        {
         "data":[1, 1, 1, 1, 1, 1, 1, 1, 1, 1, 1, 1, 1, 1, 1, 1, 1, 1, 1, 1, 1, 72, 72, 72, 72, 72, 72, 72, 1, 0, 0, 1, 72, 72, 72, 72, 72, 72, 72, 1, 1, 72, 0, 2, 72, 72, 72, 72, 1, 69, 70, 1, 72, 72, 2, 72, 72, 72, 72, 1, 1, 72, 0, 72, 72, 72, 72, 72, 1, 77, 78, 1, 72, 72, 72, 72, 72, 72, 72, 1, 1, 72, 72, 72, 72, 72, 72, 72, 1, 0, 0, 1, 72, 72, 72, 72, 72, 72, 72, 1, 1, 72, 72, 72, 72, 72, 72, 72, 1, 0, 0, 1, 72, 72, 72, 72, 72, 72, 72, 1, 1, 72, 72, 72, 72, 72, 72, 72, 1, 6, 6, 1, 72, 72, 72, 72, 72, 72, 72, 1, 1, 1, 1, 1, 1, 1, 1, 1, 1, 4, 4, 1, 1, 1, 1, 1, 1, 1, 1, 1, 1, 72, 17, 49, 50, 72, 0, 72, 4, 72, 72, 72, 72, 72, 72, 0, 0, 65, 66, 1, 1, 72, 72, 57, 58, 72, 72, 72, 4, 72, 72, 72, 72, 72, 72, 0, 0, 73, 74, 1, 1, 53, 54, 0, 0, 72, 72, 72, 4, 10, 10, 72, 72, 0, 0, 65, 66, 51, 52, 1, 1, 61, 62, 72, 72, 72, 72, 72, 4, 72, 72, 72, 72, 0, 0, 73, 74, 59, 60, 1, 1, 72, 18, 49, 50, 72, 72, 72, 4, 0, 72, 72, 72, 72, 0, 0, 0, 65, 66, 1, 1, 72, 72, 57, 58, 72, 72, 72, 4, 72, 72, 72, 72, 72, 72, 0, 0, 73, 74, 1, 1, 1, 1, 1, 1, 1, 1, 1, 1, 1, 1, 1, 1, 1, 1, 1, 1, 1, 1, 1],
         "height":15,
         "id":12,
         "name":"Tile Layer 1",
         "opacity":1,
         "type":"tilelayer",
         "visible":true,
         "width":20,
         "x":0,
         "y":0
        }],
 "nextlayerid":13,
 "nextobjectid":1,
 "orientation":"orthogonal",
 "renderorder":"right-down",
 "tiledversion":"1.2.1",
 "tileheight":32,
 "tilesets":[
        {
         "firstgid":1,
         "source":"..\/32tiles.tsx"
        }],
 "tilewidth":32,
 "type":"map",
 "version":1.2,
 "width":20
}