{ "frames": {
   "BlueDoor 0.aseprite": {
    "frame": { "x": 0, "y": 0, "w": 64, "h": 64 },
    "rotated": false,
    "trimmed": false,
    "spriteSourceSize": { "x": 0, "y": 0, "w": 64, "h": 64 },
    "sourceSize": { "w": 64, "h": 64 },
    "duration": 100
   },
   "BlueDoor 1.aseprite": {
    "frame": { "x": 64, "y": 0, "w": 64, "h": 64 },
    "rotated": false,
    "trimmed": false,
    "spriteSourceSize": { "x": 0, "y": 0, "w": 64, "h": 64 },
    "sourceSize": { "w": 64, "h": 64 },
    "duration": 100
   }
 },
 "meta": {
  "app": "http://www.aseprite.org/",
  "version": "1.2.10-beta2-x64",
  "image": "C:\\Users\\Dylan\\Workspace\\ld43\\art\\BlueDoor.png",
  "format": "RGBA8888",
  "size": { "w": 128, "h": 64 },
  "scale": "1",
  "frameTags": [
  ],
  "layers": [
   { "name": "wall", "opacity": 255, "blendMode": "normal" }
  ],
  "slices": [
  ]
 }
}
