{ "frames": {
   "Dude2 0.aseprite": {
    "frame": { "x": 0, "y": 0, "w": 16, "h": 32 },
    "rotated": false,
    "trimmed": false,
    "spriteSourceSize": { "x": 0, "y": 0, "w": 16, "h": 32 },
    "sourceSize": { "w": 16, "h": 32 },
    "duration": 100
   },
   "Dude2 1.aseprite": {
    "frame": { "x": 16, "y": 0, "w": 16, "h": 32 },
    "rotated": false,
    "trimmed": false,
    "spriteSourceSize": { "x": 0, "y": 0, "w": 16, "h": 32 },
    "sourceSize": { "w": 16, "h": 32 },
    "duration": 100
   },
   "Dude2 2.aseprite": {
    "frame": { "x": 32, "y": 0, "w": 16, "h": 32 },
    "rotated": false,
    "trimmed": false,
    "spriteSourceSize": { "x": 0, "y": 0, "w": 16, "h": 32 },
    "sourceSize": { "w": 16, "h": 32 },
    "duration": 100
   }
 },
 "meta": {
  "app": "http://www.aseprite.org/",
  "version": "1.2.10-beta2-x64",
  "image": "C:\\Users\\Dylan\\Workspace\\ld43\\art\\Dude2.png",
  "format": "RGBA8888",
  "size": { "w": 48, "h": 32 },
  "scale": "1",
  "frameTags": [
  ],
  "layers": [
   { "name": "Layer 1", "opacity": 255, "blendMode": "normal" }
  ],
  "slices": [
  ]
 }
}
